…
## Updates succeeded vs cancelled
SELECT status, total, ROUND(total * 100.0 / SUM(total) OVER (), 2) AS percentage FROM (SELECT 'succeeded' AS status, SUM(update_succeeded) AS total FROM read_json("C:\Users\utqns\Documents\Bachelorarbeit\codebase\merian-quake\build\mc_dump.json") WHERE (update_canceled + update_succeeded) > 0 UNION ALL SELECT 'canceled' AS status, SUM(update_canceled) AS total FROM read_json("C:\Users\utqns\Documents\Bachelorarbeit\codebase\merian-quake\build\mc_dump.json") WHERE (update_canceled + update_succeeded) > 0);

┌───────────┬────────────┬────────────┐
│  status   │   total    │ percentage │
│  varchar  │   int128   │   double   │
├───────────┼────────────┼────────────┤
│ succeeded │ 2614655044 │      71.56 │
│ canceled  │ 1039258404 │      28.44 │
└───────────┴────────────┴────────────┘

## Change in the State
SELECT N, COUNT(*) AS state_count, ROUND(AVG(cos_change), 3) AS avg_cos_change, ROUND(AVG(tgt_change.x), 3) AS avg_tgt_change_x, ROUND(AVG(tgt_change.y), 3) AS avg_tgt_change_y, ROUND(AVG(tgt_change.z), 3) AS avg_tgt_change_z, ROUND(AVG(w_change), 3) AS avg_w_change FROM read_json("C:\Users\utqns\Documents\Bachelorarbeit\codebase\merian-quake\build\mc_dump.json") GROUP BY N ORDER BY N;
┌───────┬─────────────┬────────────────┬──────────────────┬──────────────────┬──────────────────┬──────────────┐
│   N   │ state_count │ avg_cos_change │ avg_tgt_change_x │ avg_tgt_change_y │ avg_tgt_change_z │ avg_w_change │
│ int64 │    int64    │     double     │      double      │      double      │      double      │    double    │
├───────┼─────────────┼────────────────┼──────────────────┼──────────────────┼──────────────────┼──────────────┤
│     0 │           9 │            0.0 │              0.0 │              0.0 │              0.0 │          0.0 │
│     1 │      147891 │            1.0 │            0.763 │          831.456 │          158.514 │        0.239 │
│     2 │        4468 │          0.996 │      2614550.593 │     -7855637.715 │    -11992915.929 │       -0.068 │
│     3 │        1368 │          0.992 │        -2070.503 │       -10916.501 │       -11176.065 │        0.017 │
│     4 │         765 │           0.99 │        -1047.598 │            5.953 │           31.785 │       -0.019 │
│     5 │         562 │           0.99 │          -77.099 │        -1701.963 │         -418.459 │       -0.018 │
│     6 │         473 │          0.992 │        33024.289 │      -781957.719 │      -550732.443 │       -0.013 │
│     7 │         418 │           0.99 │         -341.239 │        -5593.723 │        -2879.176 │       -0.011 │
│     8 │         369 │          0.992 │            1.503 │           -2.259 │           14.603 │        -0.01 │
│     9 │         365 │          0.991 │          -23.196 │            4.642 │           10.935 │       -0.009 │
│    10 │         348 │          0.989 │           -3.797 │            1.004 │            9.993 │       -0.017 │
│    11 │         337 │          0.988 │            0.519 │           -5.418 │            2.368 │        0.009 │
│    12 │         332 │          0.986 │         -194.609 │          -19.852 │         -181.429 │       -0.015 │
│    13 │         325 │           0.99 │         12969.43 │       -24058.612 │       -44900.609 │       -0.007 │
│    14 │         351 │           0.99 │          -473.74 │           -4.937 │            8.216 │       -0.003 │
│    15 │         381 │           0.99 │           -0.172 │            0.481 │            8.533 │        -0.01 │
│    16 │         379 │          0.994 │            0.268 │           -4.178 │            1.487 │       -0.004 │
│    17 │         361 │          0.996 │           82.997 │           73.605 │         -110.947 │        0.037 │
│    18 │         413 │          0.995 │            0.051 │           -0.218 │            0.988 │       -0.002 │
│    19 │         394 │          0.992 │           -2.374 │           -2.692 │            3.169 │       -0.001 │
│     · │          ·  │            ·   │              ·   │              ·   │              ·   │          ·   │
│     · │          ·  │            ·   │              ·   │              ·   │              ·   │          ·   │
│     · │          ·  │            ·   │              ·   │              ·   │              ·   │          ·   │
│  1005 │         132 │          0.748 │            0.455 │            -0.48 │            1.402 │        0.028 │
│  1006 │         124 │          0.739 │           -0.013 │            0.088 │             0.24 │       -0.001 │
│  1007 │         139 │          0.721 │            0.034 │            0.097 │            0.212 │       -0.001 │
│  1008 │         163 │           0.73 │           -0.012 │            0.088 │            0.242 │       -0.001 │
│  1009 │         161 │           0.71 │           -0.008 │            0.241 │            0.185 │       -0.001 │
│  1010 │         131 │          0.719 │           -0.017 │            0.124 │            0.013 │         -0.0 │
│  1011 │         100 │          0.726 │            0.022 │            0.159 │            0.138 │       -0.001 │
│  1012 │         112 │          0.735 │           -0.013 │            0.094 │            0.019 │         -0.0 │
│  1013 │         120 │          0.722 │            0.008 │             0.09 │            0.023 │       -0.001 │
│  1014 │         129 │          0.722 │            0.012 │            0.042 │            0.296 │       -0.001 │
│  1015 │         144 │          0.709 │            0.028 │            0.124 │            0.267 │         -0.0 │
│  1016 │         134 │          0.723 │           -0.018 │            0.074 │            0.283 │         -0.0 │
│  1017 │         140 │          0.715 │           -0.021 │            0.128 │            0.146 │       -0.001 │
│  1018 │         133 │          0.708 │           -0.034 │            0.069 │            0.225 │       -0.001 │
│  1019 │         137 │          0.718 │            0.009 │            0.102 │            0.167 │       -0.001 │
│  1020 │         145 │          0.725 │            0.019 │            0.073 │            0.214 │       -0.001 │
│  1021 │         121 │          0.721 │            0.013 │            0.158 │            0.171 │       -0.001 │
│  1022 │         135 │          0.704 │            0.053 │            0.368 │            0.727 │        0.002 │
│  1023 │         138 │          0.715 │            0.208 │            0.065 │             0.71 │        0.003 │
│  1024 │         469 │          0.691 │            0.045 │            0.191 │            0.256 │         -0.0 │
├───────┴─────────────┴────────────────┴──────────────────┴──────────────────┴──────────────────┴──────────────┤
│ 1025 rows (40 shown)                                                                               7 columns │
└──────────────────────────────────────────────────────────────────────────────────────────────────────────────┘

SELECT N, COUNT(*) AS state_count, ROUND(AVG(cos_change), 3) AS avg_cos_change, ROUND(AVG(tgt_change), 3) AS avg_tgt_change_x, ROUND(AVG(w_change), 3) AS avg_w_change FROM read_json("C:\Users\utqns\Documents\Bachelorarbeit\codebase\merian-quake\build\mc_dump.json") GROUP BY N ORDER BY N;

┌───────┬─────────────┬────────────────┬──────────────────┬──────────────┐
│   N   │ state_count │ avg_cos_change │ avg_tgt_change_x │ avg_w_change │
│ int64 │    int64    │     double     │      double      │    double    │
├───────┼─────────────┼────────────────┼──────────────────┼──────────────┤
│     1 │      369886 │          0.995 │         1375.192 │         0.05 │
│     2 │        7038 │          0.023 │       736346.413 │       -0.003 │
│     3 │        2476 │          0.004 │        197965.14 │       -0.005 │
│     4 │        1877 │          0.001 │         2801.796 │       -0.003 │
│     5 │        1576 │          0.001 │         4298.473 │       -0.002 │
│     6 │        1429 │            0.0 │         3959.489 │       -0.001 │
│     7 │        1293 │            0.0 │             1.77 │       -0.001 │
│     8 │        1221 │            0.0 │         2348.855 │       -0.001 │
│     9 │        1223 │            0.0 │            1.699 │       -0.001 │
│    10 │        1117 │          0.001 │          182.017 │       -0.001 │
│    11 │        1135 │            0.0 │            1.217 │       -0.001 │
│    12 │        1091 │            0.0 │            1.221 │       -0.001 │
│    13 │        1008 │            0.0 │        14050.042 │       -0.001 │
│    14 │        1046 │            0.0 │             0.79 │       -0.001 │
│    15 │         979 │            0.0 │            0.762 │       -0.001 │
│    16 │         976 │            0.0 │            0.995 │       -0.001 │
│    17 │        1000 │            0.0 │            1.068 │       -0.001 │
│    18 │         894 │            0.0 │            0.821 │       -0.001 │
│    19 │         910 │            0.0 │             6.28 │       -0.001 │
│    20 │         822 │            0.0 │            0.595 │        0.001 │
│     · │          ·  │             ·  │              ·   │           ·  │
│     · │          ·  │             ·  │              ·   │           ·  │
│     · │          ·  │             ·  │              ·   │           ·  │
│  1005 │        7656 │            0.0 │            0.023 │         -0.0 │
│  1006 │        7772 │            0.0 │            0.025 │         -0.0 │
│  1007 │        8181 │            0.0 │            0.027 │         -0.0 │
│  1008 │        8710 │           -0.0 │            0.021 │         -0.0 │
│  1009 │        9161 │            0.0 │            0.022 │         -0.0 │
│  1010 │        9211 │            0.0 │            0.025 │         -0.0 │
│  1011 │        9766 │            0.0 │            0.021 │         -0.0 │
│  1012 │       10289 │           -0.0 │             0.02 │         -0.0 │
│  1013 │       10701 │           -0.0 │            0.021 │         -0.0 │
│  1014 │       11346 │           -0.0 │            0.026 │         -0.0 │
│  1015 │       12116 │            0.0 │            0.016 │         -0.0 │
│  1016 │       12846 │            0.0 │            0.018 │         -0.0 │
│  1017 │       13654 │            0.0 │            0.018 │         -0.0 │
│  1018 │       14817 │            0.0 │            0.015 │         -0.0 │
│  1019 │       15945 │            0.0 │            0.016 │         -0.0 │
│  1020 │       16929 │           -0.0 │            0.016 │         -0.0 │
│  1021 │       18285 │            0.0 │            0.015 │         -0.0 │
│  1022 │       19597 │            0.0 │            0.015 │         -0.0 │
│  1023 │       20969 │            0.0 │            0.017 │         -0.0 │
│  1024 │       24748 │         -0.954 │            0.142 │         -0.0 │
├───────┴─────────────┴────────────────┴──────────────────┴──────────────┤
│ 1024 rows (40 shown)                                         5 columns │
└────────────────────────────────────────────────────────────────────────┘
